EJEMPLO REGRESION LINEAL SIMPLE
…
De nuevo evite leer esta tabla hasta no comprobar supuestos:

print(datos_mod)

## # A tibble: 1,437 × 2
##      IVI precio
##    <dbl>  <dbl>
##  1  16.3   107.
##  2  34.7   208.
##  3  32.2   202.
##  4  25.9   120.
##  5  26.3   153 
##  6  43.1   264.
##  7  18.5   113.
##  8  31.2   181.
##  9  28.4   203.
## 10  28.0   144.
## # ℹ 1,427 more rows
…
