SERIES DE TIEMPO
…
# Vamos a sacar un valor promedio de cada variable por mes
# Para el dolar vamos a tomar el campo vigenciadesde
dolar <- dolar %>% 
  mutate(fecha =  format(as.Date(vigenciadesde, format = "%d/%m/%y"),
                         format = "%Y-%m-%d")) %>% 
  mutate(mes = month(fecha), anio = year(fecha)) %>% 
  mutate(valor = as.double(str_replace(valor,",",""))) %>%
  mutate(fecha= ymd(paste(anio, mes, 1, sep = "-"))) %>% 
  group_by(fecha) %>%
  summarise(precio_dolar = mean(valor), .groups = "drop")
print(dolar)

## # A tibble: 381 × 2
##    fecha      precio_dolar
##    <date>            <dbl>
##  1 1991-12-01         630.
##  2 1992-01-01         645.
##  3 1992-02-01         636.
##  4 1992-03-01         641.
##  5 1992-04-01         649.
##  6 1992-05-01         660.
##  7 1992-06-01         676.
##  8 1992-07-01         705.
##  9 1992-08-01         694.
## 10 1992-09-01         697.
## # ℹ 371 more rows
…
